…
    ## 
    ## Attaching package: 'dplyr'

    ## The following objects are masked from 'package:stats':
    ## 
    ##     filter, lag

    ## The following objects are masked from 'package:base':
    ## 
    ##     intersect, setdiff, setequal, union

    total_num_steps <- activity %>% select("steps", "date") %>% group_by(date) %>% summarise(steps = sum(steps, na.rm = T))
    total_num_steps

    ## # A tibble: 61 x 2
    ##          date steps
    ##        <dttm> <int>
    ##  1 2012-10-01     0
    ##  2 2012-10-02   126
    ##  3 2012-10-03 11352
    ##  4 2012-10-04 12116
    ##  5 2012-10-05 13294
    ##  6 2012-10-06 15420
    ##  7 2012-10-07 11015
    ##  8 2012-10-08     0
    ##  9 2012-10-09 12811
    ## 10 2012-10-10  9900
    ## # ... with 51 more rows
…
### 3. Create a new dataset that is equal to the original dataset but with the missing data filled in.

    write.csv(x = activity, file = "tidy_data.csv", row.names = F)

### 4. Make a histogram of the total number of steps taken each day and Calculate and report the mean and median total number of steps taken per day. Do these values differ from the estimates from the first part of the assignment? What is the impact of imputing missing data on the estimates of the total daily number of steps?

    # read tidy data
    cleaned_activity <- read.csv("tidy_data.csv", header = T, stringsAsFactors = F)

    total_num_steps <- cleaned_activity %>% select("steps", "date") %>% group_by(date) %>% summarise(steps = sum(steps))
    total_num_steps

    ## # A tibble: 61 x 2
    ##          date    steps
    ##         <chr>    <dbl>
    ##  1 2012-10-01 10766.19
    ##  2 2012-10-02   126.00
    ##  3 2012-10-03 11352.00
    ##  4 2012-10-04 12116.00
    ##  5 2012-10-05 13294.00
    ##  6 2012-10-06 15420.00
    ##  7 2012-10-07 11015.00
    ##  8 2012-10-08 10766.19
    ##  9 2012-10-09 12811.00
    ## 10 2012-10-10  9900.00
    ## # ... with 51 more rows
…
